Main: RN seed is 13

MY HAND [  F   5  1 ][  F   6  0 ][  F   8  5 ][  F  10  0 ][  F  11  2 ][  F  11  3 ][  F  11  4 ][  F  11  9 ][  F  12  0 ][  F  12  3 ][  F  12  9 ][  F  12 10 ]

start_num 0
NEW MAX          : ( 1) : [  T   0  6 ]
NEW MAX          : ( 1) : [  T   0 10 ]
NEW MAX          : ( 2) : [  T   0 10 ][  T  10 12 ]
NEW MAX          : ( 3) : [  T   0 10 ][  T  10 12 ][  T  12  0 ]
NEW MAX          : ( 4) : [  T   0 10 ][  T  10 12 ][  T  12  0 ][  T   0  6 ]
NEW MAX          : ( 4) : [  T   0 10 ][  T  10 12 ][  T  12  3 ][  T   3 11 ]
NEW MAX          : ( 5) : [  T   0 10 ][  T  10 12 ][  T  12  3 ][  T   3 11 ][  T  11  2 ]
NEW MAX          : ( 5) : [  T   0 10 ][  T  10 12 ][  T  12  3 ][  T   3 11 ][  T  11  4 ]
NEW MAX          : ( 5) : [  T   0 10 ][  T  10 12 ][  T  12  3 ][  T   3 11 ][  T  11  9 ]
NEW MAX          : ( 6) : [  T   0 10 ][  T  10 12 ][  T  12  3 ][  T   3 11 ][  T  11  9 ][  T   9 12 ]
NEW MAX          : ( 7) : [  T   0 10 ][  T  10 12 ][  T  12  3 ][  T   3 11 ][  T  11  9 ][  T   9 12 ][  T  12  0 ]
NEW MAX          : ( 8) : [  T   0 10 ][  T  10 12 ][  T  12  3 ][  T   3 11 ][  T  11  9 ][  T   9 12 ][  T  12  0 ][  T   0  6 ]
NEW MAX          : ( 8) : [  T   0 10 ][  T  10 12 ][  T  12  9 ][  T   9 11 ][  T  11  3 ][  T   3 12 ][  T  12  0 ][  T   0  6 ]
NEW MAX          : ( 8) : [  T   0 12 ][  T  12  3 ][  T   3 11 ][  T  11  9 ][  T   9 12 ][  T  12 10 ][  T  10  0 ][  T   0  6 ]
NEW MAX          : ( 8) : [  T   0 12 ][  T  12  9 ][  T   9 11 ][  T  11  3 ][  T   3 12 ][  T  12 10 ][  T  10  0 ][  T   0  6 ]
MAX SEQ FOR    0 : ( 8) : [  T   0 12 ][  T  12  9 ][  T   9 11 ][  T  11  3 ][  T   3 12 ][  T  12 10 ][  T  10  0 ][  T   0  6 ]

start_num 1
NEW MAX          : ( 1) : [  T   1  5 ]
NEW MAX          : ( 2) : [  T   1  5 ][  T   5  8 ]
MAX SEQ FOR    1 : ( 2) : [  T   1  5 ][  T   5  8 ]

start_num 2
NEW MAX          : ( 1) : [  T   2 11 ]
NEW MAX          : ( 2) : [  T   2 11 ][  T  11  3 ]
NEW MAX          : ( 3) : [  T   2 11 ][  T  11  3 ][  T   3 12 ]
NEW MAX          : ( 4) : [  T   2 11 ][  T  11  3 ][  T   3 12 ][  T  12  0 ]
NEW MAX          : ( 5) : [  T   2 11 ][  T  11  3 ][  T   3 12 ][  T  12  0 ][  T   0  6 ]
NEW MAX          : ( 5) : [  T   2 11 ][  T  11  3 ][  T   3 12 ][  T  12  0 ][  T   0 10 ]
NEW MAX          : ( 6) : [  T   2 11 ][  T  11  3 ][  T   3 12 ][  T  12  0 ][  T   0 10 ][  T  10 12 ]
NEW MAX          : ( 7) : [  T   2 11 ][  T  11  3 ][  T   3 12 ][  T  12  0 ][  T   0 10 ][  T  10 12 ][  T  12  9 ]
NEW MAX          : ( 8) : [  T   2 11 ][  T  11  3 ][  T   3 12 ][  T  12  0 ][  T   0 10 ][  T  10 12 ][  T  12  9 ][  T   9 11 ]
NEW MAX          : ( 9) : [  T   2 11 ][  T  11  3 ][  T   3 12 ][  T  12  0 ][  T   0 10 ][  T  10 12 ][  T  12  9 ][  T   9 11 ][  T  11  4 ]
NEW MAX          : ( 9) : [  T   2 11 ][  T  11  3 ][  T   3 12 ][  T  12 10 ][  T  10  0 ][  T   0 12 ][  T  12  9 ][  T   9 11 ][  T  11  4 ]
NEW MAX          : ( 9) : [  T   2 11 ][  T  11  9 ][  T   9 12 ][  T  12  0 ][  T   0 10 ][  T  10 12 ][  T  12  3 ][  T   3 11 ][  T  11  4 ]
NEW MAX          : ( 9) : [  T   2 11 ][  T  11  9 ][  T   9 12 ][  T  12 10 ][  T  10  0 ][  T   0 12 ][  T  12  3 ][  T   3 11 ][  T  11  4 ]
MAX SEQ FOR    2 : ( 9) : [  T   2 11 ][  T  11  9 ][  T   9 12 ][  T  12 10 ][  T  10  0 ][  T   0 12 ][  T  12  3 ][  T   3 11 ][  T  11  4 ]

start_num 3
NEW MAX          : ( 1) : [  T   3 11 ]
NEW MAX          : ( 2) : [  T   3 11 ][  T  11  2 ]
NEW MAX          : ( 2) : [  T   3 11 ][  T  11  4 ]
NEW MAX          : ( 2) : [  T   3 11 ][  T  11  9 ]
NEW MAX          : ( 3) : [  T   3 11 ][  T  11  9 ][  T   9 12 ]
NEW MAX          : ( 4) : [  T   3 11 ][  T  11  9 ][  T   9 12 ][  T  12  0 ]
NEW MAX          : ( 5) : [  T   3 11 ][  T  11  9 ][  T   9 12 ][  T  12  0 ][  T   0  6 ]
NEW MAX          : ( 5) : [  T   3 11 ][  T  11  9 ][  T   9 12 ][  T  12  0 ][  T   0 10 ]
NEW MAX          : ( 6) : [  T   3 11 ][  T  11  9 ][  T   9 12 ][  T  12  0 ][  T   0 10 ][  T  10 12 ]
NEW MAX          : ( 7) : [  T   3 11 ][  T  11  9 ][  T   9 12 ][  T  12  0 ][  T   0 10 ][  T  10 12 ][  T  12  3 ]
NEW MAX          : ( 7) : [  T   3 11 ][  T  11  9 ][  T   9 12 ][  T  12 10 ][  T  10  0 ][  T   0 12 ][  T  12  3 ]
NEW MAX          : ( 7) : [  T   3 12 ][  T  12  0 ][  T   0 10 ][  T  10 12 ][  T  12  9 ][  T   9 11 ][  T  11  2 ]
NEW MAX          : ( 7) : [  T   3 12 ][  T  12  0 ][  T   0 10 ][  T  10 12 ][  T  12  9 ][  T   9 11 ][  T  11  3 ]
NEW MAX          : ( 7) : [  T   3 12 ][  T  12  0 ][  T   0 10 ][  T  10 12 ][  T  12  9 ][  T   9 11 ][  T  11  4 ]
NEW MAX          : ( 7) : [  T   3 12 ][  T  12 10 ][  T  10  0 ][  T   0 12 ][  T  12  9 ][  T   9 11 ][  T  11  2 ]
NEW MAX          : ( 7) : [  T   3 12 ][  T  12 10 ][  T  10  0 ][  T   0 12 ][  T  12  9 ][  T   9 11 ][  T  11  3 ]
NEW MAX          : ( 7) : [  T   3 12 ][  T  12 10 ][  T  10  0 ][  T   0 12 ][  T  12  9 ][  T   9 11 ][  T  11  4 ]
MAX SEQ FOR    3 : ( 7) : [  T   3 12 ][  T  12 10 ][  T  10  0 ][  T   0 12 ][  T  12  9 ][  T   9 11 ][  T  11  4 ]

start_num 4
NEW MAX          : ( 1) : [  T   4 11 ]
NEW MAX          : ( 2) : [  T   4 11 ][  T  11  2 ]
NEW MAX          : ( 2) : [  T   4 11 ][  T  11  3 ]
NEW MAX          : ( 3) : [  T   4 11 ][  T  11  3 ][  T   3 12 ]
NEW MAX          : ( 4) : [  T   4 11 ][  T  11  3 ][  T   3 12 ][  T  12  0 ]
NEW MAX          : ( 5) : [  T   4 11 ][  T  11  3 ][  T   3 12 ][  T  12  0 ][  T   0  6 ]
NEW MAX          : ( 5) : [  T   4 11 ][  T  11  3 ][  T   3 12 ][  T  12  0 ][  T   0 10 ]
NEW MAX          : ( 6) : [  T   4 11 ][  T  11  3 ][  T   3 12 ][  T  12  0 ][  T   0 10 ][  T  10 12 ]
NEW MAX          : ( 7) : [  T   4 11 ][  T  11  3 ][  T   3 12 ][  T  12  0 ][  T   0 10 ][  T  10 12 ][  T  12  9 ]
NEW MAX          : ( 8) : [  T   4 11 ][  T  11  3 ][  T   3 12 ][  T  12  0 ][  T   0 10 ][  T  10 12 ][  T  12  9 ][  T   9 11 ]
NEW MAX          : ( 9) : [  T   4 11 ][  T  11  3 ][  T   3 12 ][  T  12  0 ][  T   0 10 ][  T  10 12 ][  T  12  9 ][  T   9 11 ][  T  11  2 ]
NEW MAX          : ( 9) : [  T   4 11 ][  T  11  3 ][  T   3 12 ][  T  12 10 ][  T  10  0 ][  T   0 12 ][  T  12  9 ][  T   9 11 ][  T  11  2 ]
NEW MAX          : ( 9) : [  T   4 11 ][  T  11  9 ][  T   9 12 ][  T  12  0 ][  T   0 10 ][  T  10 12 ][  T  12  3 ][  T   3 11 ][  T  11  2 ]
NEW MAX          : ( 9) : [  T   4 11 ][  T  11  9 ][  T   9 12 ][  T  12 10 ][  T  10  0 ][  T   0 12 ][  T  12  3 ][  T   3 11 ][  T  11  2 ]
MAX SEQ FOR    4 : ( 9) : [  T   4 11 ][  T  11  9 ][  T   9 12 ][  T  12 10 ][  T  10  0 ][  T   0 12 ][  T  12  3 ][  T   3 11 ][  T  11  2 ]

start_num 5
NEW MAX          : ( 1) : [  T   5  1 ]
NEW MAX          : ( 1) : [  T   5  8 ]
MAX SEQ FOR    5 : ( 1) : [  T   5  8 ]

start_num 6
NEW MAX          : ( 1) : [  T   6  0 ]
NEW MAX          : ( 2) : [  T   6  0 ][  T   0 10 ]
NEW MAX          : ( 3) : [  T   6  0 ][  T   0 10 ][  T  10 12 ]
NEW MAX          : ( 4) : [  T   6  0 ][  T   0 10 ][  T  10 12 ][  T  12  0 ]
NEW MAX          : ( 4) : [  T   6  0 ][  T   0 10 ][  T  10 12 ][  T  12  3 ]
NEW MAX          : ( 5) : [  T   6  0 ][  T   0 10 ][  T  10 12 ][  T  12  3 ][  T   3 11 ]
NEW MAX          : ( 6) : [  T   6  0 ][  T   0 10 ][  T  10 12 ][  T  12  3 ][  T   3 11 ][  T  11  2 ]
NEW MAX          : ( 6) : [  T   6  0 ][  T   0 10 ][  T  10 12 ][  T  12  3 ][  T   3 11 ][  T  11  4 ]
NEW MAX          : ( 6) : [  T   6  0 ][  T   0 10 ][  T  10 12 ][  T  12  3 ][  T   3 11 ][  T  11  9 ]
NEW MAX          : ( 7) : [  T   6  0 ][  T   0 10 ][  T  10 12 ][  T  12  3 ][  T   3 11 ][  T  11  9 ][  T   9 12 ]
NEW MAX          : ( 8) : [  T   6  0 ][  T   0 10 ][  T  10 12 ][  T  12  3 ][  T   3 11 ][  T  11  9 ][  T   9 12 ][  T  12  0 ]
NEW MAX          : ( 8) : [  T   6  0 ][  T   0 10 ][  T  10 12 ][  T  12  9 ][  T   9 11 ][  T  11  3 ][  T   3 12 ][  T  12  0 ]
NEW MAX          : ( 8) : [  T   6  0 ][  T   0 12 ][  T  12  3 ][  T   3 11 ][  T  11  9 ][  T   9 12 ][  T  12 10 ][  T  10  0 ]
NEW MAX          : ( 8) : [  T   6  0 ][  T   0 12 ][  T  12  9 ][  T   9 11 ][  T  11  3 ][  T   3 12 ][  T  12 10 ][  T  10  0 ]
MAX SEQ FOR    6 : ( 8) : [  T   6  0 ][  T   0 12 ][  T  12  9 ][  T   9 11 ][  T  11  3 ][  T   3 12 ][  T  12 10 ][  T  10  0 ]

start_num 7
MAX SEQ FOR    7 : ( 0) : 

start_num 8
NEW MAX          : ( 1) : [  T   8  5 ]
NEW MAX          : ( 2) : [  T   8  5 ][  T   5  1 ]
MAX SEQ FOR    8 : ( 2) : [  T   8  5 ][  T   5  1 ]

start_num 9
NEW MAX          : ( 1) : [  T   9 11 ]
NEW MAX          : ( 2) : [  T   9 11 ][  T  11  2 ]
NEW MAX          : ( 2) : [  T   9 11 ][  T  11  3 ]
NEW MAX          : ( 3) : [  T   9 11 ][  T  11  3 ][  T   3 12 ]
NEW MAX          : ( 4) : [  T   9 11 ][  T  11  3 ][  T   3 12 ][  T  12  0 ]
NEW MAX          : ( 5) : [  T   9 11 ][  T  11  3 ][  T   3 12 ][  T  12  0 ][  T   0  6 ]
NEW MAX          : ( 5) : [  T   9 11 ][  T  11  3 ][  T   3 12 ][  T  12  0 ][  T   0 10 ]
NEW MAX          : ( 6) : [  T   9 11 ][  T  11  3 ][  T   3 12 ][  T  12  0 ][  T   0 10 ][  T  10 12 ]
NEW MAX          : ( 7) : [  T   9 11 ][  T  11  3 ][  T   3 12 ][  T  12  0 ][  T   0 10 ][  T  10 12 ][  T  12  9 ]
NEW MAX          : ( 7) : [  T   9 11 ][  T  11  3 ][  T   3 12 ][  T  12 10 ][  T  10  0 ][  T   0 12 ][  T  12  9 ]
NEW MAX          : ( 7) : [  T   9 12 ][  T  12  0 ][  T   0 10 ][  T  10 12 ][  T  12  3 ][  T   3 11 ][  T  11  2 ]
NEW MAX          : ( 7) : [  T   9 12 ][  T  12  0 ][  T   0 10 ][  T  10 12 ][  T  12  3 ][  T   3 11 ][  T  11  4 ]
NEW MAX          : ( 7) : [  T   9 12 ][  T  12  0 ][  T   0 10 ][  T  10 12 ][  T  12  3 ][  T   3 11 ][  T  11  9 ]
NEW MAX          : ( 7) : [  T   9 12 ][  T  12 10 ][  T  10  0 ][  T   0 12 ][  T  12  3 ][  T   3 11 ][  T  11  2 ]
NEW MAX          : ( 7) : [  T   9 12 ][  T  12 10 ][  T  10  0 ][  T   0 12 ][  T  12  3 ][  T   3 11 ][  T  11  4 ]
NEW MAX          : ( 7) : [  T   9 12 ][  T  12 10 ][  T  10  0 ][  T   0 12 ][  T  12  3 ][  T   3 11 ][  T  11  9 ]
MAX SEQ FOR    9 : ( 7) : [  T   9 12 ][  T  12 10 ][  T  10  0 ][  T   0 12 ][  T  12  3 ][  T   3 11 ][  T  11  9 ]

start_num 10
NEW MAX          : ( 1) : [  T  10  0 ]
NEW MAX          : ( 2) : [  T  10  0 ][  T   0  6 ]
NEW MAX          : ( 2) : [  T  10  0 ][  T   0 12 ]
NEW MAX          : ( 3) : [  T  10  0 ][  T   0 12 ][  T  12  3 ]
NEW MAX          : ( 4) : [  T  10  0 ][  T   0 12 ][  T  12  3 ][  T   3 11 ]
NEW MAX          : ( 5) : [  T  10  0 ][  T   0 12 ][  T  12  3 ][  T   3 11 ][  T  11  2 ]
NEW MAX          : ( 5) : [  T  10  0 ][  T   0 12 ][  T  12  3 ][  T   3 11 ][  T  11  4 ]
NEW MAX          : ( 5) : [  T  10  0 ][  T   0 12 ][  T  12  3 ][  T   3 11 ][  T  11  9 ]
NEW MAX          : ( 6) : [  T  10  0 ][  T   0 12 ][  T  12  3 ][  T   3 11 ][  T  11  9 ][  T   9 12 ]
NEW MAX          : ( 7) : [  T  10  0 ][  T   0 12 ][  T  12  3 ][  T   3 11 ][  T  11  9 ][  T   9 12 ][  T  12 10 ]
NEW MAX          : ( 7) : [  T  10  0 ][  T   0 12 ][  T  12  9 ][  T   9 11 ][  T  11  3 ][  T   3 12 ][  T  12 10 ]
NEW MAX          : ( 7) : [  T  10 12 ][  T  12  3 ][  T   3 11 ][  T  11  9 ][  T   9 12 ][  T  12  0 ][  T   0  6 ]
NEW MAX          : ( 7) : [  T  10 12 ][  T  12  3 ][  T   3 11 ][  T  11  9 ][  T   9 12 ][  T  12  0 ][  T   0 10 ]
NEW MAX          : ( 7) : [  T  10 12 ][  T  12  9 ][  T   9 11 ][  T  11  3 ][  T   3 12 ][  T  12  0 ][  T   0  6 ]
NEW MAX          : ( 7) : [  T  10 12 ][  T  12  9 ][  T   9 11 ][  T  11  3 ][  T   3 12 ][  T  12  0 ][  T   0 10 ]
MAX SEQ FOR   10 : ( 7) : [  T  10 12 ][  T  12  9 ][  T   9 11 ][  T  11  3 ][  T   3 12 ][  T  12  0 ][  T   0 10 ]

start_num 11
NEW MAX          : ( 1) : [  T  11  2 ]
NEW MAX          : ( 1) : [  T  11  3 ]
NEW MAX          : ( 2) : [  T  11  3 ][  T   3 12 ]
NEW MAX          : ( 3) : [  T  11  3 ][  T   3 12 ][  T  12  0 ]
NEW MAX          : ( 4) : [  T  11  3 ][  T   3 12 ][  T  12  0 ][  T   0  6 ]
NEW MAX          : ( 4) : [  T  11  3 ][  T   3 12 ][  T  12  0 ][  T   0 10 ]
NEW MAX          : ( 5) : [  T  11  3 ][  T   3 12 ][  T  12  0 ][  T   0 10 ][  T  10 12 ]
NEW MAX          : ( 6) : [  T  11  3 ][  T   3 12 ][  T  12  0 ][  T   0 10 ][  T  10 12 ][  T  12  9 ]
NEW MAX          : ( 7) : [  T  11  3 ][  T   3 12 ][  T  12  0 ][  T   0 10 ][  T  10 12 ][  T  12  9 ][  T   9 11 ]
NEW MAX          : ( 8) : [  T  11  3 ][  T   3 12 ][  T  12  0 ][  T   0 10 ][  T  10 12 ][  T  12  9 ][  T   9 11 ][  T  11  2 ]
NEW MAX          : ( 8) : [  T  11  3 ][  T   3 12 ][  T  12  0 ][  T   0 10 ][  T  10 12 ][  T  12  9 ][  T   9 11 ][  T  11  4 ]
NEW MAX          : ( 8) : [  T  11  3 ][  T   3 12 ][  T  12 10 ][  T  10  0 ][  T   0 12 ][  T  12  9 ][  T   9 11 ][  T  11  2 ]
NEW MAX          : ( 8) : [  T  11  3 ][  T   3 12 ][  T  12 10 ][  T  10  0 ][  T   0 12 ][  T  12  9 ][  T   9 11 ][  T  11  4 ]
NEW MAX          : ( 8) : [  T  11  9 ][  T   9 12 ][  T  12  0 ][  T   0 10 ][  T  10 12 ][  T  12  3 ][  T   3 11 ][  T  11  2 ]
NEW MAX          : ( 8) : [  T  11  9 ][  T   9 12 ][  T  12  0 ][  T   0 10 ][  T  10 12 ][  T  12  3 ][  T   3 11 ][  T  11  4 ]
NEW MAX          : ( 8) : [  T  11  9 ][  T   9 12 ][  T  12 10 ][  T  10  0 ][  T   0 12 ][  T  12  3 ][  T   3 11 ][  T  11  2 ]
NEW MAX          : ( 8) : [  T  11  9 ][  T   9 12 ][  T  12 10 ][  T  10  0 ][  T   0 12 ][  T  12  3 ][  T   3 11 ][  T  11  4 ]
MAX SEQ FOR   11 : ( 8) : [  T  11  9 ][  T   9 12 ][  T  12 10 ][  T  10  0 ][  T   0 12 ][  T  12  3 ][  T   3 11 ][  T  11  4 ]

start_num 12
NEW MAX          : ( 1) : [  T  12  0 ]
NEW MAX          : ( 2) : [  T  12  0 ][  T   0  6 ]
NEW MAX          : ( 2) : [  T  12  0 ][  T   0 10 ]
NEW MAX          : ( 3) : [  T  12  0 ][  T   0 10 ][  T  10 12 ]
NEW MAX          : ( 4) : [  T  12  0 ][  T   0 10 ][  T  10 12 ][  T  12  3 ]
NEW MAX          : ( 5) : [  T  12  0 ][  T   0 10 ][  T  10 12 ][  T  12  3 ][  T   3 11 ]
NEW MAX          : ( 6) : [  T  12  0 ][  T   0 10 ][  T  10 12 ][  T  12  3 ][  T   3 11 ][  T  11  2 ]
NEW MAX          : ( 6) : [  T  12  0 ][  T   0 10 ][  T  10 12 ][  T  12  3 ][  T   3 11 ][  T  11  4 ]
NEW MAX          : ( 6) : [  T  12  0 ][  T   0 10 ][  T  10 12 ][  T  12  3 ][  T   3 11 ][  T  11  9 ]
NEW MAX          : ( 7) : [  T  12  0 ][  T   0 10 ][  T  10 12 ][  T  12  3 ][  T   3 11 ][  T  11  9 ][  T   9 12 ]
NEW MAX          : ( 7) : [  T  12  0 ][  T   0 10 ][  T  10 12 ][  T  12  9 ][  T   9 11 ][  T  11  3 ][  T   3 12 ]
NEW MAX          : ( 7) : [  T  12  3 ][  T   3 11 ][  T  11  9 ][  T   9 12 ][  T  12  0 ][  T   0 10 ][  T  10 12 ]
NEW MAX          : ( 7) : [  T  12  3 ][  T   3 11 ][  T  11  9 ][  T   9 12 ][  T  12 10 ][  T  10  0 ][  T   0  6 ]
NEW MAX          : ( 7) : [  T  12  3 ][  T   3 11 ][  T  11  9 ][  T   9 12 ][  T  12 10 ][  T  10  0 ][  T   0 12 ]
NEW MAX          : ( 7) : [  T  12  9 ][  T   9 11 ][  T  11  3 ][  T   3 12 ][  T  12  0 ][  T   0 10 ][  T  10 12 ]
NEW MAX          : ( 7) : [  T  12  9 ][  T   9 11 ][  T  11  3 ][  T   3 12 ][  T  12 10 ][  T  10  0 ][  T   0  6 ]
NEW MAX          : ( 7) : [  T  12  9 ][  T   9 11 ][  T  11  3 ][  T   3 12 ][  T  12 10 ][  T  10  0 ][  T   0 12 ]
NEW MAX          : ( 7) : [  T  12 10 ][  T  10  0 ][  T   0 12 ][  T  12  3 ][  T   3 11 ][  T  11  9 ][  T   9 12 ]
NEW MAX          : ( 7) : [  T  12 10 ][  T  10  0 ][  T   0 12 ][  T  12  9 ][  T   9 11 ][  T  11  3 ][  T   3 12 ]
MAX SEQ FOR   12 : ( 7) : [  T  12 10 ][  T  10  0 ][  T   0 12 ][  T  12  9 ][  T   9 11 ][  T  11  3 ][  T   3 12 ]

